info.plist

<key>Fabric</key>
      <dict>
          <key>APIKey</key>
          <string>AIzaSyD5NXURVbNlpIyp5MtJYO0nbaepSo6Rtto</string>
          <key>Kits</key>
          <array>
              <dict>
                  <key>KitInfo</key>
                  <dict/>
                  <key>KitName</key>
                  <string>Crashlytics</string>
              </dict>
          </array>
      </dict>


  