<?xml version="1.0" encoding="utf-8"?>
<!-- Generator: Adobe Illustrator 22.0.0, SVG Export Plug-In . SVG Version: 6.00 Build 0)  -->
<svg version="1.1" id="Capa_1" xmlns="http://www.w3.org/2000/svg" xmlns:xlink="http://www.w3.org/1999/xlink" x="0px" y="0px"
	 viewBox="0 0 75 75" style="enable-background:new 0 0 75 75;" xml:space="preserve">
<style type="text/css">
	.st0{fill:#D7782D;}
</style>
<g>
	<path class="st0" d="M70.1,28.1c0-9.7-7.9-17.6-17.6-17.6c-6.3,0-11.9,3.4-14.9,8.4c-3.1-5-8.6-8.4-14.9-8.4
		c-9.7,0-17.6,7.9-17.6,17.6c0,5.3,2.3,10,6,13.2L36,66.2c0.4,0.4,1,0.7,1.6,0.7c0.6,0,1.2-0.2,1.6-0.7l24.9-24.9
		C67.7,38.1,70.1,33.4,70.1,28.1L70.1,28.1z M70.1,28.1"/>
</g>
</svg>
