<?xml version="1.0" encoding="utf-8"?>
<!-- Generator: Adobe Illustrator 16.0.0, SVG Export Plug-In . SVG Version: 6.00 Build 0)  -->
<!DOCTYPE svg PUBLIC "-//W3C//DTD SVG 1.1//EN" "http://www.w3.org/Graphics/SVG/1.1/DTD/svg11.dtd">
<svg version="1.1" id="Capa_1" xmlns="http://www.w3.org/2000/svg" xmlns:xlink="http://www.w3.org/1999/xlink" x="0px" y="0px"
	 width="800px" height="800px" viewBox="0 0 800 800" enable-background="new 0 0 800 800" xml:space="preserve">
<g>
	<path fill="#594CFA" d="M400.683,236.332c-40.168,0-72.868,32.689-72.868,72.868v36.429h145.736V309.2
		C473.551,269.021,440.851,236.332,400.683,236.332"/>
	<path fill="#594CFA" d="M400.683,418.48c-20.09,0-36.429,16.333-36.429,36.445c0,11.771,5.579,22.504,14.908,29.289l-5.747,51.661
		c-0.291,2.571,0.548,5.153,2.264,7.077c1.727,1.934,4.203,3.029,6.792,3.029h36.423c2.582,0,5.063-1.096,6.785-3.029
		c1.722-1.924,2.561-4.506,2.27-7.077l-5.746-51.661c9.335-6.785,14.902-17.518,14.902-29.289
		C437.105,434.813,420.771,418.48,400.683,418.48"/>
	<path fill="#594CFA" d="M400.638,30.283c-204.261,0-369.958,165.602-369.958,369.947c0,204.356,165.697,370.036,369.958,370.036
		c204.339,0,370.042-165.68,370.042-370.036C770.68,195.885,605.055,30.283,400.638,30.283 M564.619,582.416
		c0,20.09-16.334,36.445-36.424,36.445H273.18c-20.09,0-36.44-16.355-36.44-36.445V354.734c0-5.036,4.075-9.111,9.111-9.111h27.329
		v-36.428c0-70.303,57.194-127.508,127.502-127.508c70.296,0,127.513,57.206,127.513,127.508v36.428h27.323
		c5.03,0,9.101,4.075,9.101,9.111V582.416z"/>
</g>
</svg>
